{
    "files.exclude": {
        "**/__pycache__": true,
        "**/.mypy_cache": true
    },
    "explorer.confirmDelete": false,
    "telemetry.enableTelemetry": false,
    "telemetry.enableCrashReporter": false,
    "python.analysis.openFilesOnly": false,
    "python.autoComplete.addBrackets": true,
    "python.autoComplete.showAdvancedMembers": false,
    "python.disableInstallationCheck": false,
    "editor.minimap.enabled": false,
    "editor.renderWhitespace": "none",
    "editor.renderControlCharacters": true,
    "python.formatting.provider": "yapf",
    "python.linting.mypyEnabled": true,
    "python.linting.pep8Enabled": true,
    "python.linting.prospectorEnabled": true,
    "python.linting.pydocstyleEnabled": true,
    "python.linting.pylamaEnabled": true
}